{
  "_class": "group",
  "do_objectID": "A3F09D7B-D709-4447-8A40-C069063FC19C",
  "exportOptions": {
    "_class": "exportOptions",
    "exportFormats": [
    ],
    "includedLayerIds": [
    ],
    "layerOptions": 0,
    "shouldTrim": false
  },
  "frame": {
    "_class": "rect",
    "constrainProportions": false,
    "height": 40,
    "width": 220,
    "x": 0,
    "y": 104
  },
  "hasClickThrough": false,
  "isFlippedHorizontal": false,
  "isFlippedVertical": false,
  "isLocked": false,
  "isVisible": true,
  "layerListExpandedType": 0,
  "layers": [
    {
      "class": "group",
      "id": "22A27B13-CFE5-41B8-9FB0-A1626A76E6F7"
    },
    {
      "class": "symbolInstance",
      "id": "0B77826C-7053-44A4-8BB8-83C641A6C714"
    }
  ],
  "name": "sidebar/molecules/menu-item/",
  "nameIsFixed": false,
  "resizingConstraint": 63,
  "resizingType": 0,
  "rotation": 0,
  "shouldBreakMaskChain": false,
  "style": {
    "_class": "style",
    "endDecorationType": 0,
    "miterLimit": 10,
    "startDecorationType": 0
  }
}