{
  "_class": "shapePath",
  "booleanOperation": -1,
  "do_objectID": "36485DDD-8552-4DCE-B75B-51F23116B67B",
  "edited": true,
  "exportOptions": {
    "_class": "exportOptions",
    "exportFormats": [
    ],
    "includedLayerIds": [
    ],
    "layerOptions": 0,
    "shouldTrim": false
  },
  "frame": {
    "_class": "rect",
    "constrainProportions": false,
    "height": 4.58988851615786,
    "width": 8.402340326892874,
    "x": 3.726884797504543,
    "y": 9.068124081636267
  },
  "isFlippedHorizontal": false,
  "isFlippedVertical": false,
  "isLocked": false,
  "isVisible": true,
  "layerListExpandedType": 0,
  "name": "Path",
  "nameIsFixed": false,
  "path": {
    "_class": "path",
    "isClosed": true,
    "pointRadiusBehaviour": 1,
    "points": [
      {
        "_class": "curvePoint",
        "cornerRadius": 0,
        "curveFrom": "{0.37499999999999994, 1}",
        "curveMode": 1,
        "curveTo": "{0.37499999999999994, 1}",
        "hasCurveFrom": false,
        "hasCurveTo": false,
        "point": "{0.37499999999999994, 1}"
      },
      {
        "_class": "curvePoint",
        "cornerRadius": 0,
        "curveFrom": "{0.37499999999999994, 0.56024610898814531}",
        "curveMode": 4,
        "curveTo": "{0.37499999999999994, 0.68665598535133898}",
        "hasCurveFrom": true,
        "hasCurveTo": false,
        "point": "{0.37499999999999994, 0.68665598535133898}"
      },
      {
        "_class": "curvePoint",
        "cornerRadius": 0,
        "curveFrom": "{0.56903559372884915, 0.45777065690089269}",
        "curveMode": 2,
        "curveTo": "{0.43096440627115079, 0.45777065690089269}",
        "hasCurveFrom": true,
        "hasCurveTo": true,
        "point": "{0.49999999999999994, 0.45777065690089269}"
      },
      {
        "_class": "curvePoint",
        "cornerRadius": 0,
        "curveFrom": "{0.625, 0.68665598535133898}",
        "curveMode": 4,
        "curveTo": "{0.625, 0.56024610898814531}",
        "hasCurveFrom": false,
        "hasCurveTo": true,
        "point": "{0.625, 0.68665598535133898}"
      },
      {
        "_class": "curvePoint",
        "cornerRadius": 0,
        "curveFrom": "{0.625, 1}",
        "curveMode": 1,
        "curveTo": "{0.625, 1}",
        "hasCurveFrom": false,
        "hasCurveTo": false,
        "point": "{0.625, 1}"
      },
      {
        "_class": "curvePoint",
        "cornerRadius": 0,
        "curveFrom": "{1, 1}",
        "curveMode": 1,
        "curveTo": "{1, 1}",
        "hasCurveFrom": false,
        "hasCurveTo": false,
        "point": "{1, 1}"
      },
      {
        "_class": "curvePoint",
        "cornerRadius": 0,
        "curveFrom": "{1, 0}",
        "curveMode": 1,
        "curveTo": "{1, 0}",
        "hasCurveFrom": false,
        "hasCurveTo": false,
        "point": "{1, 0}"
      },
      {
        "_class": "curvePoint",
        "cornerRadius": 0,
        "curveFrom": "{0, 0}",
        "curveMode": 1,
        "curveTo": "{0, 0}",
        "hasCurveFrom": false,
        "hasCurveTo": false,
        "point": "{0, 0}"
      },
      {
        "_class": "curvePoint",
        "cornerRadius": 0,
        "curveFrom": "{0, 1}",
        "curveMode": 1,
        "curveTo": "{0, 1}",
        "hasCurveFrom": false,
        "hasCurveTo": false,
        "point": "{0, 1}"
      }
    ]
  },
  "resizingConstraint": 63,
  "resizingType": 0,
  "rotation": 0,
  "shouldBreakMaskChain": false
}