{
  "_class": "shapeGroup",
  "clippingMaskMode": 0,
  "do_objectID": "40F760E9-09F1-4A11-A31A-7E1F400A4899",
  "exportOptions": {
    "_class": "exportOptions",
    "exportFormats": [
    ],
    "includedLayerIds": [
    ],
    "layerOptions": 0,
    "shouldTrim": false
  },
  "frame": {
    "_class": "rect",
    "constrainProportions": false,
    "height": 4,
    "width": 4,
    "x": 644,
    "y": 0
  },
  "hasClickThrough": false,
  "hasClippingMask": false,
  "isFlippedHorizontal": true,
  "isFlippedVertical": false,
  "isLocked": false,
  "isVisible": true,
  "layerListExpandedType": 0,
  "layers": [
    {
      "class": "rectangle",
      "id": "FE8DD5AE-61FE-4C4D-B58E-6AE1DFEABE5D"
    }
  ],
  "name": "Rectangle 5 Copy 12",
  "nameIsFixed": false,
  "resizingConstraint": 63,
  "resizingType": 0,
  "rotation": 0,
  "shouldBreakMaskChain": false,
  "style": {
    "sharedObjectID": "09334668-4522-4969-99CC-2D060C8F8009"
  },
  "windingRule": 1
}